<svg xmlns="http://www.w3.org/2000/svg" viewBox="0 0 100 100">
 <!-- Created with iOG SVG Editor -->
    <path d="M35 19.772h55" fill="none" stroke="#222" stroke-width="8" stroke-opacity=".941"/>
    <path fill="#222" d="M10 12.272h15v15H10z"/>
    <path d="M43 63.678h45" fill="none" stroke="#222" stroke-width="5" stroke-opacity=".941"/>
    <path fill="#222" d="M23 58.677h10v10H23z"/>
    <path d="M43 82.727h45" fill="none" stroke="#222" stroke-width="5" stroke-opacity=".941"/>
    <path fill="#222" d="M23 77.727h10v10H23z"/>
    <path d="M43 44.628h45" fill="none" stroke="#222" stroke-width="5" stroke-opacity=".941"/>
    <path fill="#222" d="M23 39.628h10v10H23z"/>
</svg>