<svg width="128" height="128" xmlns="http://www.w3.org/2000/svg">
<!-- Created with iOG SVG Editor -->
 <g>
  <title>cLHy Refman Icon</title>
  <rect fill="none" id="canvas_background" height="128" width="128" y="0" x="0"/>
 </g>
 <g>
  <title>cLHy Refman Icon</title>
  <g stroke="null" id="svg_36">
   <path stroke="null" id="svg_1" fill="#B99678" d="m2.00213,73.84542l7.86161,-36.41421c0.30062,-1.94601 1.95896,-3.38202 3.91,-3.38577l0.04853,0l99.11846,-0.18825l0.04853,0c1.95079,-0.00375 3.61459,1.42601 3.92263,3.37102l7.99706,36.38421"/>
   <path stroke="null" id="svg_2" fill="#E1C3A0" d="m124.92431,81.86797l-0.01486,-8.00555c-0.00421,-2.20151 -1.79157,-3.99927 -3.97216,-3.99527l-114.97737,0.21825c-2.18059,0.00425 -3.96126,1.80876 -3.9573,4.01027l0.01486,8.00555"/>
   <path stroke="null" id="svg_3" fill="#F0DCBE" d="m95.18104,77.92169l-89.20626,0.16925c-2.18059,0.00425 -3.96126,1.80876 -3.9573,4.01027l0.07454,40.02798c0.00421,2.20151 1.79157,3.99927 3.97216,3.99527l114.97737,-0.21825c2.18059,-0.00425 3.96126,-1.80876 3.9573,-4.01027l-0.07454,-40.02798c-0.00421,-2.20151 -1.79157,-3.99927 -3.97216,-3.99527l-5.94722,0.01125"/>
   <path stroke="null" id="svg_4" fill="#B99678" d="m87.29666,101.95333c0.00421,2.20151 -1.77671,4.00627 -3.9573,4.01027l-39.64753,0.07525c-2.18059,0.00425 -3.9682,-1.79376 -3.97216,-3.99527l0,0c-0.00421,-2.20151 1.77671,-4.00627 3.9573,-4.01027l39.64753,-0.07525c2.18034,-0.004 3.96795,1.79376 3.97216,3.99527l0,0z"/>
   <path stroke="null" id="svg_5" fill="#EFF2FA" d="m21.80373,69.95565l-0.06339,-41.92974c-0.00198,-1.10076 0.88823,-2.00326 1.97877,-2.00526l79.29457,-0.15025c1.09029,-0.002 1.98422,0.89676 1.9862,1.99776l0.06339,41.83774l-83.25954,0.24975z"/>
   <path stroke="null" id="svg_6" fill="#C7CFE2" d="m25.7016,26.01715l-0.01114,-6.00428c-0.00198,-1.10076 0.88823,-2.00326 1.97877,-2.00526l71.36511,-0.13525c1.09029,-0.002 1.98422,0.89676 1.9862,1.99776l0.01114,6.00428"/>
   <path stroke="null" id="svg_7" fill="#8F96AC" d="m29.65122,18.0041l-0.01114,-6.00428c-0.00198,-1.10076 0.88823,-2.00326 1.97877,-2.00526l63.4359,-0.12025c1.09029,-0.002 1.98422,0.89676 1.9862,1.99776l0.01114,6.00428"/>
   <path stroke="null" id="svg_8" fill="#707487" d="m33.60109,9.99106l-0.01114,-6.00428c-0.00198,-1.10076 0.88823,-2.00326 1.97877,-2.00526l55.50645,-0.10525c1.09029,-0.002 1.98422,0.89676 1.9862,1.99776l0.01114,6.00428"/>
   <path stroke="null" id="svg_9" d="m126.78274,81.86422l-0.01486,-8.00555c0,-0.05275 -0.00272,-0.105 -0.00421,-0.1575c0.00594,-0.129 -0.00149,-0.2605 -0.02303,-0.3925c-0.04432,-0.4715 -0.14486,-0.92676 -0.29344,-1.35926l-7.71031,-35.07795c-0.47866,-2.83977 -2.88162,-4.89078 -5.73624,-4.89078c-0.00371,0 -0.00792,0 -0.01164,0l-0.04853,0c-1.02641,0 -1.85843,0.84 -1.85843,1.87626c0,1.03626 0.83202,1.87626 1.85843,1.87626l0.052,0c0.00149,0 0.00272,0 0.00421,0c1.04102,0 1.91513,0.7525 2.0798,1.79076c0.0057,0.037 0.01263,0.07375 0.0208,0.11025l6.68588,30.41792c-0.27387,-0.04 -0.55369,-0.06175 -0.83821,-0.06175c-0.00371,0 -0.00743,0 -0.01114,0l-114.97737,0.21825c-0.28675,0.0005 -0.57028,0.02225 -0.84886,0.064l6.57222,-30.44192c0.00792,-0.0365 0.01461,-0.07325 0.02055,-0.1105c0.16046,-1.04026 1.03408,-1.79676 2.07807,-1.79851l0.04853,0c1.02641,-0.0025 1.85645,-0.8445 1.85372,-1.88101c-0.00248,-1.03476 -0.834,-1.87151 -1.85843,-1.87151c-0.00149,0 -0.00322,0 -0.0047,0l-0.0473,0c-2.86304,0.00525 -5.26451,2.06776 -5.73302,4.91278l-7.57758,35.0972c-0.15031,0.44125 -0.24886,0.90176 -0.29121,1.37376c-0.02055,0.1305 -0.02724,0.26025 -0.02105,0.38775c-0.00124,0.053 -0.00371,0.1055 -0.00347,0.15875l0.01486,8.00555l0.07454,40.02798c0.00594,3.23802 2.61715,5.86803 5.82291,5.86803c0.00371,0 0.00743,0 0.01114,0l114.97737,-0.21825c1.55088,-0.003 3.01088,-0.6185 4.11083,-1.73326c1.09995,-1.11476 1.70416,-2.59101 1.70143,-4.15727l-0.07429,-40.02798zm-5.74491,42.16549l-114.97737,0.21825c-0.00124,0 -0.00272,0 -0.00396,0c-0.55691,0 -1.08336,-0.2215 -1.48303,-0.6235c-0.40066,-0.403 -0.62203,-0.93551 -0.62327,-1.49901l-0.07454,-40.02798c-0.00099,-0.5635 0.21841,-1.09676 0.61758,-1.50126c0.39917,-0.4045 0.92661,-0.628 1.48476,-0.62925l89.20651,-0.16925c1.02641,-0.002 1.85694,-0.8435 1.85496,-1.87976c-0.00198,-1.03526 -0.83351,-1.87276 -1.85843,-1.87276c-0.00099,0 -0.00248,0 -0.00347,0l-89.20651,0.16925c-0.73173,0.0015 -1.44242,0.14075 -2.10556,0.40275l-0.0047,-2.52551c0,-0.02 0.00223,-0.0395 0.00272,-0.0595l0.16739,-0.77525c0.10425,-0.24475 0.25431,-0.47075 0.44721,-0.6665c0.39917,-0.4045 0.92661,-0.628 1.48476,-0.62925l114.97737,-0.21825c0.00124,0 0.00272,0 0.00396,0c0.86297,0 1.6061,0.52725 1.93098,1.27976l0.17185,0.78275c0.0005,0.02025 0.00322,0.03975 0.00322,0.06l0.0047,2.52601c-0.65101,-0.2545 -1.35723,-0.3955 -2.0959,-0.3955c-0.00371,0 -0.00743,0 -0.01114,0l-5.94722,0.01125c-1.02641,0.002 -1.85694,0.8435 -1.85496,1.87976c0.00198,1.03526 0.83351,1.87276 1.85843,1.87276c0.00124,0 0.00248,0 0.00371,0l5.94722,-0.01125c0.00124,0 0.00272,0 0.00396,0c1.15963,0 2.10407,0.95126 2.1063,2.12251l0.07454,40.02798c0.00248,1.17276 -0.94073,2.12876 -2.10209,2.13076z"/>
   <path stroke="null" id="svg_10" d="m107.07622,76.02268c-0.00124,0 -0.00248,0 -0.00371,0l-3.96522,0.0075c-1.02641,0.002 -1.85694,0.8435 -1.85496,1.87976c0.00198,1.03501 0.83351,1.87276 1.85843,1.87276c0.00124,0 0.00248,0 0.00371,0l3.96522,-0.0075c1.02641,-0.002 1.85694,-0.8435 1.85496,-1.87976c-0.00223,-1.03476 -0.83375,-1.87276 -1.85843,-1.87276z"/>
   <path stroke="null" id="svg_11" d="m83.32078,96.0818l-39.64753,0.07525c-1.55088,0.003 -3.01088,0.6185 -4.11083,1.73326c-1.09995,1.11476 -1.70416,2.59101 -1.70119,4.15702c0.00594,3.23577 2.61814,5.86803 5.82316,5.86803c0.00099,0 0.00991,0 0.0109,0l39.64753,-0.07525c3.21096,-0.006 5.8182,-2.64827 5.81226,-5.88978c-0.00619,-3.23602 -2.61839,-5.86853 -5.8343,-5.86853zm0.01486,8.00555l-39.64753,0.07525l-0.00396,1.87626l0,-1.87626c-1.15913,0 -2.10407,-0.95226 -2.1063,-2.12251c-0.00099,-0.5635 0.21841,-1.09676 0.61758,-1.50126c0.39917,-0.4045 0.92661,-0.628 1.48476,-0.62925l39.65125,-0.07525c1.15938,0 2.10432,0.95226 2.1063,2.12251c0.00248,1.17251 -0.94073,2.12826 -2.10209,2.13051z"/>
   <path stroke="null" id="svg_12" d="m21.80348,63.92611c0.00124,0 0.00248,0 0.00371,0c1.02641,-0.002 1.85694,-0.8435 1.85496,-1.87976l-0.06314,-34.02369c0,-0.06425 0.05993,-0.125 0.12357,-0.12525l1.97729,-0.00375c0.0005,0 0.00124,0 0.00173,0c0.00124,0 0.00248,0 0.00371,0c0.0005,0 0.00124,0 0.00198,0l77.31059,-0.1465c0,0 0,0 0.00025,0c0.0317,0 0.06042,0.01275 0.08568,0.03825s0.03813,0.0545 0.03813,0.0865l0.06314,34.02369c0.00198,1.03526 0.83351,1.87276 1.85843,1.87276c0.00124,0 0.00248,0 0.00371,0c1.02641,-0.002 1.85694,-0.8435 1.85496,-1.87976l-0.06314,-34.02369c-0.00198,-1.03351 -0.40388,-2.00601 -1.13165,-2.73827c-0.72628,-0.73025 -1.68806,-1.13226 -2.70902,-1.13226c-0.00248,0 -0.00495,0 -0.00743,0l-0.12381,0.00025l-0.00768,-4.12777c-0.00198,-1.03351 -0.40388,-2.00601 -1.13165,-2.73827c-0.72628,-0.73025 -1.68806,-1.13226 -2.70902,-1.13226c-0.00248,0 -0.0052,0 -0.00743,0l-0.12381,0.00025l-0.00768,-4.12777c-0.00198,-1.03351 -0.40388,-2.00601 -1.13165,-2.73827c-0.72628,-0.73025 -1.68806,-1.13226 -2.70902,-1.13226c-0.00248,0 -0.00495,0 -0.00743,0l-0.12381,0.00025l-0.00768,-4.12777c-0.00198,-1.03351 -0.40388,-2.00601 -1.13165,-2.73802c-0.72703,-0.731 -1.6888,-1.13276 -2.70976,-1.13276c-0.00248,0 -0.00495,0 -0.00743,0l-55.50645,0.10525c-2.11769,0.004 -3.83745,1.74676 -3.83349,3.88502l0.00768,4.12777l-0.12381,0.00025c-2.11769,0.004 -3.83745,1.74676 -3.83373,3.88502l0.00768,4.12777l-0.12381,0.00025c-2.11794,0.004 -3.8377,1.74676 -3.83373,3.88502l0.00768,4.12777l-0.12381,0.00025c-1.02368,0.002 -1.98695,0.40775 -2.71224,1.14251c-0.72505,0.735 -1.12348,1.70901 -1.12149,2.74252l0.06314,34.02369c0.00223,1.03526 0.83375,1.87301 1.85843,1.87301zm13.6449,-59.94284c0,-0.06425 0.05993,-0.125 0.12357,-0.12525l55.50645,-0.10525l0,0c0.0317,0 0.06067,0.01275 0.08568,0.038c0.02526,0.0255 0.03813,0.0545 0.03813,0.08675l0.00768,4.12777l-55.75432,0.10575l-0.00718,-4.12777zm-3.94987,8.0133c0,-0.0645 0.05993,-0.12525 0.12381,-0.1255l1.97729,-0.00375c0.0005,0 0.00124,0 0.00173,0c0.00124,0 0.00248,0 0.00371,0c0.0005,0 0.00124,0 0.00198,0l59.46523,-0.11275l0.00025,0c0.00124,0 0.00248,0 0.00371,0c0.00025,0 0.00025,0 0.0005,0l1.98199,-0.00375c0,0 0,0 0.00025,0c0.0317,0 0.06042,0.01275 0.08568,0.03825c0.02526,0.0255 0.03813,0.0545 0.03813,0.0865l0.00768,4.12777l-63.68377,0.12075l-0.00817,-4.12752zm-3.94962,8.0128c0,-0.06425 0.05993,-0.125 0.12357,-0.12525l69.37916,-0.1315l0.00025,0c0.00124,0 0.00248,0 0.00371,0c0,0 0.00025,0 0.0005,0l1.98199,-0.00375c0,0 0,0 0.00025,0c0.0317,0 0.06042,0.01275 0.08568,0.03825c0.02526,0.0255 0.03813,0.0545 0.03813,0.0865l0.00768,4.12777l-71.61323,0.13575l-0.00768,-4.12777z"/>
   <path stroke="null" id="svg_13" d="m41.60112,47.87702l15.85891,-0.03c1.02641,-0.002 1.85694,-0.8435 1.85496,-1.87976c-0.00198,-1.03526 -0.83351,-1.87276 -1.85843,-1.87276c-0.00124,0 -0.00248,0 -0.00371,0l-15.85891,0.03c-1.02641,0.002 -1.85694,0.8435 -1.85496,1.87976c0.00198,1.03526 0.83351,1.87276 1.85843,1.87276c0.00124,0 0.00272,0 0.00371,0z"/>
   <path stroke="null" id="svg_14" d="m71.19433,37.93922c-0.00198,-1.03501 -0.83351,-1.87276 -1.85843,-1.87276c-0.00124,0 -0.00248,0 -0.00371,0l-27.7531,0.0525c-1.02641,0.002 -1.85694,0.8435 -1.85496,1.87976c0.00198,1.03526 0.83351,1.87276 1.85843,1.87276c0.00124,0 0.00248,0 0.00371,0l27.7531,-0.0525c1.02665,-0.002 1.85694,-0.8435 1.85496,-1.87976z"/>
   <path stroke="null" id="svg_15" d="m31.67457,39.89048l1.98249,-0.00375c1.02641,-0.002 1.85694,-0.8435 1.85496,-1.87976c-0.00198,-1.03501 -0.83351,-1.87276 -1.85843,-1.87276c-0.00124,0 -0.00248,0 -0.00371,0l-1.98249,0.00375c-1.02641,0.002 -1.85694,0.8435 -1.85496,1.87976c0.00198,1.03501 0.83351,1.87276 1.85843,1.87276c0.00124,0 0.00248,0 0.00371,0z"/>
   <path stroke="null" id="svg_16" d="m31.68571,47.89602c0.00124,0 0.00248,0 0.00371,0l1.98249,-0.00375c1.02641,-0.002 1.85694,-0.8435 1.85496,-1.87976c-0.00198,-1.03501 -0.83351,-1.87276 -1.85843,-1.87276c-0.00124,0 -0.00248,0 -0.00371,0l-1.98249,0.00375c-1.02641,0.002 -1.85694,0.8435 -1.85496,1.87976c0.00223,1.03501 0.83375,1.87276 1.85843,1.87276z"/>
   <path stroke="null" id="svg_17" d="m49.55361,60.12059l-17.8414,0.03375c-1.02641,0.002 -1.85694,0.8435 -1.85496,1.87976c0.00198,1.03526 0.83351,1.87276 1.85843,1.87276c0.00124,0 0.00248,0 0.00371,0l17.8414,-0.03375c1.02641,-0.002 1.85694,-0.8435 1.85496,-1.87976c-0.00198,-1.03526 -0.83351,-1.87276 -1.85843,-1.87276c-0.00124,0 -0.00272,0 -0.00371,0z"/>
   <path stroke="null" id="svg_18" d="m65.27732,53.96156c-0.00198,-1.03526 -0.83351,-1.87276 -1.85843,-1.87276c-0.00124,0 -0.00248,0 -0.00371,0l-31.71807,0.06025c-1.02641,0.002 -1.85694,0.8435 -1.85496,1.87976c0.00198,1.03526 0.83351,1.87276 1.85843,1.87276c0.00124,0 0.00248,0 0.00371,0l31.71807,-0.06025c1.02616,-0.002 1.85694,-0.8435 1.85496,-1.87976z"/>
   <path stroke="null" id="svg_19" d="m85.22824,55.79982l9.91194,-0.01875c1.02641,-0.002 1.85694,-0.8435 1.85496,-1.87976c-0.00198,-1.03526 -0.83351,-1.87276 -1.85843,-1.87276c-0.00124,0 -0.00248,0 -0.00371,0l-9.91194,0.01875c-1.02641,0.002 -1.85694,0.8435 -1.85496,1.87976c0.00198,1.03526 0.83351,1.87276 1.85843,1.87276c0.00124,0 0.00248,0 0.00371,0z"/>
   <path stroke="null" id="svg_20" d="m71.36296,63.83211c0.00124,0 0.00248,0 0.00371,0l23.78837,-0.04525c1.02641,-0.002 1.85694,-0.8435 1.85496,-1.87976c-0.00198,-1.03501 -0.83351,-1.87276 -1.85843,-1.87276c-0.00124,0 -0.00248,0 -0.00371,0l-23.78837,0.04525c-1.02641,0.002 -1.85694,0.8435 -1.85496,1.87976c0.00198,1.03476 0.83375,1.87276 1.85843,1.87276z"/>
  </g>
 </g>
</svg>