<svg width="128" height="128" xmlns="http://www.w3.org/2000/svg">
<!-- Created with iOG SVG Editor -->
 <g>
  <title>cLHy Virtual Host Icon</title>
  <rect fill="none" id="canvas_background" height="128" width="128" y="0" x="0"/>
 </g>
 <g>
  <title>cLHy Virtual Host Icon</title>
   <g stroke="null" id="svg_1">
    <circle stroke="null" id="svg_2" fill="#367596" r="6.27789" cy="119.14829" cx="53.27639"/>
    <circle stroke="null" id="svg_3" fill="#367596" r="6.27789" cy="119.14829" cx="74.72284"/>
    <circle stroke="null" id="svg_4" fill="#367596" r="6.27789" cy="105.53137" cx="110.91415"/>
   </g>
   <path stroke="null" id="svg_5" fill="#25BBCC" d="m109.75875,38.32902c-0.17694,-20.07138 -16.24849,-36.28654 -36.04636,-36.28654c-0.22788,0 -0.45576,0.00275 -0.68364,0.0055l26.82972,75.75105l5.4475,0c10.87088,0 19.6827,-8.9517 19.6827,-19.99513c0,-9.48544 -6.50643,-17.42415 -15.22991,-19.47488z"/>
   <path stroke="null" id="svg_6" fill="#50D1DD" d="m103.72432,38.32902c-0.15012,-19.83713 -13.78215,-35.91054 -30.69558,-36.28104c-13.30768,0.25325 -24.85138,7.8297 -30.88852,18.92489c-1.29223,-0.5665 -2.67281,-0.95874 -4.11786,-1.14924c-0.64599,-0.0845 -1.30552,-0.128 -1.97587,-0.128c-7.80383,0 -14.24333,5.90971 -15.22991,13.56242c-10.15229,2.04524 -17.80601,11.14143 -17.80601,22.05387c0,12.42143 9.91112,22.48712 22.13575,22.48712l5.12266,0c0.00049,0 69.58972,0 69.58972,0c9.43665,0 17.08766,-8.9517 17.08766,-19.99513c-0.00025,-9.48544 -5.6488,-17.42415 -13.22204,-19.47488z"/>
   <circle stroke="null" id="svg_7" fill="#367596" r="6.27789" cy="105.53137" cx="17.08508"/>
   <path stroke="null" id="svg_8" d="m55.28697,110.5376l0,-32.73731c0,-1.12824 -0.89996,-2.04249 -2.01057,-2.04249l-13.40415,0c-1.11061,0 -2.01057,0.91424 -2.01057,2.04249c0,1.12824 0.89996,2.04249 2.01057,2.04249l11.39358,0l0,30.69482c-3.83756,0.92474 -6.70208,4.43322 -6.70208,8.61045c0,4.88047 3.90844,8.85095 8.71265,8.85095s8.71265,-3.97048 8.71265,-8.85095c0,-4.17723 -2.86451,-7.68545 -6.70208,-8.61045zm-2.01057,13.37667c-2.58668,0 -4.6915,-2.13824 -4.6915,-4.76597s2.10483,-4.76597 4.6915,-4.76597c2.58668,0 4.6915,2.13824 4.6915,4.76597s-2.10483,4.76597 -4.6915,4.76597z"/>
   <path stroke="null" id="svg_9" d="m76.73366,110.5376l0,-32.73731c0,-1.12824 -0.89996,-2.04249 -2.01057,-2.04249l-13.40391,0c-1.11061,0 -2.01057,0.91424 -2.01057,2.04249c0,1.12824 0.89996,2.04249 2.01057,2.04249l11.39333,0l0,30.69482c-3.83756,0.92474 -6.70208,4.43322 -6.70208,8.61045c0,4.88047 3.90844,8.85095 8.71265,8.85095s8.71265,-3.97048 8.71265,-8.85095c0,-4.17723 -2.86451,-7.68545 -6.70208,-8.61045zm-2.01082,13.37667c-2.58668,0 -4.6915,-2.13824 -4.6915,-4.76597s2.10483,-4.76597 4.6915,-4.76597s4.6915,2.13824 4.6915,4.76597s-2.10458,4.76597 -4.6915,4.76597z"/>
   <path stroke="null" id="svg_10" d="m110.91415,96.68018c-4.1122,0 -7.56561,2.90998 -8.47591,6.80846l-4.25789,0l0,-25.68835c0,-1.12824 -0.89996,-2.04249 -2.01057,-2.04249l-13.40415,0c-1.11061,0 -2.01057,0.91424 -2.01057,2.04249c0,1.12824 0.89996,2.04249 2.01057,2.04249l11.39358,0l0,25.68835c0,1.12824 0.89996,2.04249 2.01057,2.04249l6.26871,0c0.9103,3.89848 4.36395,6.80846 8.47591,6.80846c4.80421,0 8.71265,-3.97048 8.71265,-8.85095c0,-4.88047 -3.90844,-8.85095 -8.7129,-8.85095zm0,13.61692c-2.58668,0 -4.6915,-2.13824 -4.6915,-4.76597s2.10483,-4.76597 4.6915,-4.76597s4.6915,2.13824 4.6915,4.76597s-2.10458,4.76597 -4.6915,4.76597z"/>
   <path stroke="null" id="svg_11" d="m122.21151,43.99824c-2.70972,-3.41773 -6.39028,-5.94996 -10.4855,-7.24196c-0.46118,-9.66894 -4.40997,-18.69014 -11.21664,-25.5471c-7.17556,-7.22846 -16.69244,-11.20918 -26.79822,-11.20918c-13.27028,0 -25.55004,7.02971 -32.45588,18.46114c-1.67933,-0.53775 -3.42487,-0.8095 -5.21002,-0.8095c-8.21333,0 -15.27618,5.88972 -16.97938,13.91792c-10.54776,2.77973 -18.06588,12.54618 -18.06588,23.74261c0,13.52617 10.83224,24.5306 24.14706,24.5306l4.67182,0l0,23.64586l-4.25789,0c-0.9103,-3.89848 -4.36395,-6.80846 -8.47591,-6.80846c-4.80421,0 -8.71265,3.97048 -8.71265,8.85095c0,4.88047 3.90844,8.85095 8.71265,8.85095c4.1122,0 7.56561,-2.90998 8.47591,-6.80846l6.26871,0c1.11061,0 2.01057,-0.91424 2.01057,-2.04249l0,-27.73084c0,-1.12824 -0.89996,-2.04249 -2.01057,-2.04249l-6.68264,0c-11.09728,0 -20.12592,-9.17195 -20.12592,-20.44563c0,-9.72869 6.8079,-18.16164 16.1877,-20.05138c0.84582,-0.17025 1.49083,-0.86949 1.60255,-1.73824c0.86575,-6.71896 6.55491,-11.78543 13.23386,-11.78543c1.83732,0 3.61928,0.374 5.29615,1.11124c0.95065,0.418 2.05758,0.034 2.55838,-0.88624c6.00096,-11.02718 17.42407,-17.87714 29.81137,-17.87714c18.60064,0 33.86968,15.37016 34.03751,34.2633c0.00837,0.94399 0.65214,1.75874 1.55727,1.97149c8.04992,1.89249 13.67215,9.0827 13.67215,17.4849c0,9.89919 -7.92762,17.95289 -17.67213,17.95289l-1.09413,0c-1.11061,0 -2.01057,0.91424 -2.01057,2.04249c0,1.12824 0.89996,2.04249 2.01057,2.04249l1.09388,0c11.96156,0 21.69328,-9.88619 21.69328,-22.03787c0.00025,-5.00922 -1.70025,-9.91244 -4.78748,-13.80642zm-105.12643,66.29886c-2.58668,0 -4.6915,-2.13824 -4.6915,-4.76597s2.10483,-4.76597 4.6915,-4.76597s4.6915,2.13824 4.6915,4.76597s-2.10483,4.76597 -4.6915,4.76597z"/>
   <path stroke="null" id="svg_12" d="m99.03602,40.47101c0.00591,0 0.0123,0 0.01846,0c1.11037,-0.01025 2.00221,-0.93299 1.99236,-2.06099c-0.03002,-3.36448 -0.6551,-6.65671 -1.858,-9.78544c-0.40433,-1.05074 -1.56982,-1.56999 -2.60439,-1.15974c-1.03433,0.4105 -1.54546,1.59474 -1.14138,2.64573c1.02473,2.66448 1.55703,5.46947 1.58262,8.3362c0.01009,1.12224 0.90808,2.02424 2.01033,2.02424z"/>
   <path stroke="null" id="svg_13" d="m91.68672,23.62711c0.39769,0.489 0.97206,0.74175 1.55112,0.74175c0.45109,0 0.90488,-0.15325 1.27919,-0.468c0.85591,-0.7185 0.97699,-2.00574 0.26972,-2.87573c-5.23586,-6.43896 -12.91763,-10.13194 -21.07534,-10.13194c-1.11061,0 -2.01057,0.91424 -2.01057,2.04249s0.89996,2.04249 2.01057,2.04249c6.95407,0.0005 13.50579,3.15248 17.97532,8.64895z"/>
</g>
</svg>